[gd_resource type="Resource" script_class="DialogueData" load_steps=2 format=3 uid="uid://b8f5p43cug5qi"]

[ext_resource type="Script" path="res://addons/dialogue_nodes/objects/DialogueData.gd" id="1_k4u2v"]

[resource]
script = ExtResource("1_k4u2v")
starts = {
"START": &"0_1"
}
nodes = {
"0_1": {
"link": &"1_1",
"offset": Vector2(-11, 198),
"start_id": "START"
},
"1_1": {
"dialogue": "{{sentence}}",
"offset": Vector2(320, 200),
"options": {
0: {
"link": &"3_1",
"text": ""
}
},
"size": {
"x": 206.001,
"y": 234.0
},
"speaker": 6.0
},
"3_1": {
"link": "END",
"offset": Vector2(680, 380),
"signalValue": "END"
}
}
variables = {
"sentence": {
"type": 4,
"value": "C'est bien"
}
}
comments = Array[String]([])
strays = Array[String]([])
characters = "res://Dialogues/CharacterFaceTest.tres"
