[gd_scene load_steps=3 format=3 uid="uid://drfv1exbijb83"]

[ext_resource type="Texture2D" uid="uid://csaconggc1vkn" path="res://UI/Sci-Fi/Asteroids/A6__00006.png" id="1_m81ly"]
[ext_resource type="Script" path="res://Scene/Asteroid.gd" id="2_8fcq2"]

[node name="Asteroid8" type="Sprite2D"]
position = Vector2(1050, -156)
scale = Vector2(0.3, 0.3)
texture = ExtResource("1_m81ly")
script = ExtResource("2_8fcq2")
moveX = 1.0
moveY = 1.0
