[gd_scene load_steps=3 format=3 uid="uid://bs8y0j8n0b7ho"]

[ext_resource type="Texture2D" uid="uid://p2k030ue7m5e" path="res://UI/Sci-Fi/Asteroids/A1__00003.png" id="1_eg3j6"]
[ext_resource type="Script" path="res://Scene/Asteroid.gd" id="2_ojbjp"]

[node name="Asteroid" type="Sprite2D"]
position = Vector2(1235, -304)
scale = Vector2(0.3, 0.3)
texture = ExtResource("1_eg3j6")
script = ExtResource("2_ojbjp")
moveX = 1.0
moveY = 1.0
