[gd_scene load_steps=3 format=3 uid="uid://dl16jylmo1whh"]

[ext_resource type="Texture2D" uid="uid://bf2amuq3374uk" path="res://UI/Sci-Fi/Asteroids/A6__00011.png" id="1_aueoi"]
[ext_resource type="Script" path="res://Scene/Asteroid.gd" id="2_7vdqw"]

[node name="Asteroid10" type="Sprite2D"]
position = Vector2(1498, -455)
scale = Vector2(0.1, 0.1)
texture = ExtResource("1_aueoi")
script = ExtResource("2_7vdqw")
moveX = 1.0
